…
Let's start by creating a new data frame called `gss_black` that contains only respondents who reported their race to be Black.

``` r
library(tidyverse)
#> ── Attaching packages ─────────────────────────────────────────────────────────────── tidyverse 1.2.1 ──
#> ✔ ggplot2 2.2.1.9000     ✔ readr   1.1.1.9000
#> ✔ tibble  1.4.1          ✔ purrr   0.2.4.9000
#> ✔ tidyr   0.7.2.9000     ✔ dplyr   0.7.4.9000
#> ✔ ggplot2 2.2.1.9000     ✔ stringr 1.3.0
#> ── Conflicts ────────────────────────────────────────────────────────────────── tidyverse_conflicts() ──
#> ✖ dplyr::filter() masks stats::filter()
#> ✖ dplyr::lag()    masks stats::lag()
gss_black <- filter(gss_cat, race == "Black")
gss_black
#> # A tibble: 3,129 x 9
#>     year marital         age race   rincome        part… relig denom tvho…
#>    <int> <fctr>        <int> <fctr> <fctr>         <fct> <fct> <fct> <int>
#>  1  2000 Married          40 Black  $25000 or more Stro… Prot… Bapt…     7
#>  2  2000 Married          45 Black  Not applicable Inde… Prot… Unit…    NA
#>  3  2000 Married          55 Black  Not applicable Not … Prot… Other     1
#>  4  2000 Divorced         36 Black  $15000 - 19999 Stro… None  Not …    NA
#>  5  2000 Divorced         39 Black  Don't know     Inde… None  Not …    NA
#>  6  2000 Never married    27 Black  $25000 or more Stro… Prot… Am b…     4
#>  7  2000 Widowed          43 Black  Not applicable Inde… None  Not …     3
#>  8  2000 Never married    34 Black  $15000 - 19999 Stro… Prot… Nat …    NA
#>  9  2000 Widowed          83 Black  Not applicable Stro… Prot… Unit…    12
#> 10  2000 Widowed          78 Black  Not applicable Stro… Other Not …     4
#> # ... with 3,119 more rows
```

The general syntax of the `filter()` function is `filter(data, logical_statement)`. So in this case, the data we used is the `gss_cat` data frame and the logical statment is `race == "Black"`. Note that we had to use `==`, not `=` because we are doing a comparison, not an assignment. In other words, we are asking R to compare all records in the race column of `gss_cat` to `"Black"` and return the ones where that condition is `TRUE`. Also note we needed to put `"Black"` in quotation marks for this to work.

After we created the object `gss_black`, we printed `gss_black` to get a quick look at the dataset. We can see there are 3,129 observations of 9 variables. In addition, the first 10 rows of the dataset print in the console along with data type of each variable. This is a quick alternative to viewing the entire data frame in the viewer window.

Next, we will further filter the `gss_black` data frame to only include observations in the 2010, 2012, and 2014 surveys.

``` r
gss_black_recent <- filter(gss_black, year > 2008)
gss_black_recent
#> # A tibble: 998 x 9
#>     year marital         age race   rincome        part… relig denom tvho…
#>    <int> <fctr>        <int> <fctr> <fctr>         <fct> <fct> <fct> <int>
#>  1  2010 Divorced         71 Black  Not applicable Stro… Cath… Not …     5
#>  2  2010 Married          78 Black  Not applicable Inde… Prot… Other    NA
#>  3  2010 Never married    40 Black  $10000 - 14999 Stro… None  Not …     4
#>  4  2010 Divorced         46 Black  $25000 or more Ind,… Cath… Not …    NA
#>  5  2010 Widowed          80 Black  Not applicable Not … Prot… Nat …     1
#>  6  2010 Married          31 Black  Refused        Stro… Cath… Not …    NA
#>  7  2010 Never married    NA Black  Refused        No a… Cath… Not …     1
#>  8  2010 Never married    31 Black  $20000 - 24999 Stro… Cath… Not …     4
#>  9  2010 Married          58 Black  $25000 or more Stro… Prot… Bapt…     2
#> 10  2010 Never married    88 Black  Not applicable Not … Prot… Sout…     4
#> # ... with 988 more rows
```
…
-   `==` (is equal to)
-   `!=` (is not equal to)
-   `<` (less than)
-   `>` (greater than)
-   `<=` (less than or equal to)
-   `>=` (greater than or equal to)
-   `&` (and)
-   `|` (or)

You can also combine operations into one `filter()` call. For example, let's create a new data frame that is only white Protestants over the age of 50.

``` r
trump_voters <- filter(gss_cat, race == "White" & age > 50 & relig == "Protestant")
trump_voters
#> # A tibble: 4,142 x 9
#>     year marital    age race   rincome        partyid relig  denom   tvho…
#>    <int> <fctr>   <int> <fctr> <fctr>         <fctr>  <fctr> <fctr>  <int>
#>  1  2000 Widowed     67 White  Not applicable Indepe… Prote… No den…     2
#>  2  2000 Married     53 White  $25000 or more Not st… Prote… Other       2
#>  3  2000 Married     52 White  $25000 or more Strong… Prote… Southe…     1
#>  4  2000 Married     51 White  $25000 or more Strong… Prote… United…    NA
#>  5  2000 Widowed     82 White  Not applicable Not st… Prote… Other       3
#>  6  2000 Widowed     83 White  Not applicable Strong… Prote… Episco…    NA
#>  7  2000 Widowed     89 White  Not applicable Not st… Prote… Other …     4
#>  8  2000 Widowed     88 White  Not applicable Strong… Prote… Afr me…    NA
#>  9  2000 Divorced    72 White  Not applicable Strong… Prote… Southe…     7
#> 10  2000 Widowed     82 White  Not applicable Indepe… Prote… Am bap…    NA
#> # ... with 4,132 more rows
```

### Select columns with `select()`

Now that we've filtered our data frames, maybe we also want to get rid of some variables we don't need for our analysis. This is a job for the `select()` function. It helps us select the columns to keep in our data frame and discards the rest.

``` r
gss_small <- select(gss_cat, year, age, race, tvhours)
gss_small
#> # A tibble: 21,483 x 4
#>     year   age race   tvhours
#>    <int> <int> <fctr>   <int>
#>  1  2000    26 White       12
#>  2  2000    48 White       NA
#>  3  2000    67 White        2
#>  4  2000    39 White        4
#>  5  2000    25 White        1
#>  6  2000    25 White       NA
#>  7  2000    36 White        3
#>  8  2000    44 White       NA
#>  9  2000    44 White        0
#> 10  2000    47 White        3
#> # ... with 21,473 more rows
```

You can include as many variables as you want after the `data` argument of `filter()` by separating them with commas. Another nice feature of the `select()` function is the ability to rename columns as you select them. Let's select the same columns as above, but rename tvhours to weekly\_tv.

``` r
gss_rename <- select(gss_cat, year, age, race, weekly_tv = tvhours)
gss_rename
#> # A tibble: 21,483 x 4
#>     year   age race   weekly_tv
#>    <int> <int> <fctr>     <int>
#>  1  2000    26 White         12
#>  2  2000    48 White         NA
#>  3  2000    67 White          2
#>  4  2000    39 White          4
#>  5  2000    25 White          1
#>  6  2000    25 White         NA
#>  7  2000    36 White          3
#>  8  2000    44 White         NA
#>  9  2000    44 White          0
#> 10  2000    47 White          3
#> # ... with 21,473 more rows
```
…
